<?xml version="1.0" encoding="UTF-8" standalone="no"?>
<svg xmlns:rdf="http://www.w3.org/1999/02/22-rdf-syntax-ns#" xmlns="http://www.w3.org/2000/svg" version="1.1" xmlns:cc="http://creativecommons.org/ns#" viewBox="0 0 21.406888 21.406896" xmlns:dc="http://purl.org/dc/elements/1.1/">
<metadata>
<rdf:RDF>
<cc:Work rdf:about="">
<dc:format>image/svg+xml</dc:format>
<dc:type rdf:resource="http://purl.org/dc/dcmitype/StillImage"/>
</cc:Work>
</rdf:RDF>
</metadata>
<g transform="translate(-753.77429 -117.462)">
<rect height="7.406888" width="7.406888" y="117.462" x="753.7743"/>
<rect height="7.406888" width="7.406888" y="131.462" x="759.7743"/>
<rect height="7.406888" width="7.406888" y="119.462" x="767.7743"/>
</g>
</svg>
