<?xml version="1.0" encoding="UTF-8" standalone="no"?>
<svg xmlns:rdf="http://www.w3.org/1999/02/22-rdf-syntax-ns#" xmlns="http://www.w3.org/2000/svg" version="1.1" xmlns:cc="http://creativecommons.org/ns#" xmlns:xlink="http://www.w3.org/1999/xlink" viewBox="0 0 16.000858 16.001566" xmlns:dc="http://purl.org/dc/elements/1.1/">
<metadata>
<rdf:RDF>
<cc:Work rdf:about="">
<dc:format>image/svg+xml</dc:format>
<dc:type rdf:resource="http://purl.org/dc/dcmitype/StillImage"/>
</cc:Work>
</rdf:RDF>
</metadata>
<defs>
<linearGradient id="e" y2="350.1636" gradientUnits="userSpaceOnUse" x2="130.3522" y1="343.258" x1="121.1177">
<stop stop-color="#fffdf8" offset="0"/>
<stop stop-color="#cdccc7" offset="1"/>
</linearGradient>
<linearGradient id="a">
<stop stop-color="#5a5a5a" offset="0"/>
<stop offset="1"/>
</linearGradient>
<linearGradient id="c" y2="213" xlink:href="#a" gradientUnits="userSpaceOnUse" x2="176" gradientTransform="translate(-105,-15)" y1="213" x1="160"/>
<linearGradient id="d" y2="46.339" gradientUnits="userSpaceOnUse" x2="414.2602" gradientTransform="matrix(1.001797 0 0 .906445 -290.1978 295.2598)" y1="46.33899" x1="404.6787">
<stop stop-color="#fff" offset="0"/>
<stop stop-color="#98b6d3" offset="1"/>
</linearGradient>
<linearGradient id="b" y2="213.0785" xlink:href="#a" gradientUnits="userSpaceOnUse" x2="175.2934" gradientTransform="translate(-105,-15)" y1="213" x1="160"/>
</defs>
<g transform="translate(-54.999196,-189.99763)">
<g stroke-linejoin="round" stroke="#000" stroke-linecap="round" transform="matrix(1 0 0 .996869 -60.05772 -144.2098)" fill-rule="evenodd">
<rect style="color:#000000" height="11.99987" width="14.99917" y="338.8083" x="115.5577" stroke-width="1.0015693" fill="url(#e)"/>
<rect style="color:#000000" height="3.011261" width="14.99819" y="335.7579" x="115.5588" stroke-width="1.0015692" fill="url(#d)"/>
</g>
<path d="m62 196-4 3 4 3" stroke="url(#b)" stroke-width="1px" fill="none"/>
<path d="m64 196 4 3-4 3" stroke="url(#c)" stroke-width="1px" fill="none"/>
</g>
</svg>
