<?xml version="1.0" encoding="UTF-8" standalone="no"?>
<svg xmlns:rdf="http://www.w3.org/1999/02/22-rdf-syntax-ns#" xmlns="http://www.w3.org/2000/svg" version="1.1" xmlns:cc="http://creativecommons.org/ns#" xmlns:xlink="http://www.w3.org/1999/xlink" viewBox="0 0 16.000858 16.06947" xmlns:dc="http://purl.org/dc/elements/1.1/">
<metadata>
<rdf:RDF>
<cc:Work rdf:about="">
<dc:format>image/svg+xml</dc:format>
<dc:type rdf:resource="http://purl.org/dc/dcmitype/StillImage"/>
</cc:Work>
</rdf:RDF>
</metadata>
<defs>
<linearGradient id="d" y2="350.1636" gradientUnits="userSpaceOnUse" x2="130.3522" y1="343.258" x1="121.1177">
<stop stop-color="#fffdf8" offset="0"/>
<stop stop-color="#cdccc7" offset="1"/>
</linearGradient>
<linearGradient id="c" y2="46.339" gradientUnits="userSpaceOnUse" x2="414.2602" gradientTransform="matrix(1.001797 0 0 .906445 -290.1978 295.2598)" y1="46.33899" x1="404.6787">
<stop stop-color="#fff" offset="0"/>
<stop stop-color="#98b6d3" offset="1"/>
</linearGradient>
<linearGradient id="b" y2="244.6786" gradientUnits="userSpaceOnUse" x2="717.6032" gradientTransform="matrix(1 0 0 -1 .453976 493.3688)" y1="249.9805" x1="712.986">
<stop stop-color="#fff" offset="0"/>
<stop stop-color="#aaa" offset="1"/>
</linearGradient>
<linearGradient id="a" y2="712.1672" gradientUnits="userSpaceOnUse" x2="61.99598" y1="715.7595" x1="64.60896">
<stop offset="0"/>
<stop stop-color="#2a2a2a" offset="1"/>
</linearGradient>
</defs>
<g transform="translate(-99.999956,-389.00075)">
<g stroke-linejoin="round" stroke="#000" stroke-linecap="round" transform="matrix(1 0 0 .996869 -15.05696 54.79332)" fill-rule="evenodd">
<rect style="color:#000000" height="11.99987" width="14.99917" y="338.8083" x="115.5577" stroke-width="1.0015693" fill="url(#d)"/>
<rect style="color:#000000" height="3.011261" width="14.99819" y="335.7579" x="115.5588" stroke-width="1.0015692" fill="url(#c)"/>
</g>
<g transform="matrix(.823809 0 0 .639827 -480.5562 242.2038)">
<rect style="color:#000000" fill-opacity="0" height="18.61259" width="14.52438" y="235.935" x="707.1481" stroke-width=".83269"/>
<g transform="translate(0 -.9)" fill-rule="evenodd">
<path style="color:#000000" d="m718.3596 243.1986c1.0177 0.7535 1.9383 1.9048 2.7914 3.5759-1.8334 3.5913-3.3519 5.0981-6.102 5.0981-2.75 0-5.5802-1.8728-7.196-5.1815 1.8334-3.5914 5.4431-5.3526 8.3072-4.6092m-4.3843 0.3061-1.0395-4.0779m-1.5179 5.9334-1.55-2.5302m7.259 0.2222 0.1148-4.7275m2.4251 5.351 1.5295-3.7884m0.6191 5.3042 1.6145-1.9398" stroke="#000" stroke-linecap="round" stroke-width="1.1019087" fill="url(#b)"/>
<ellipse style="color:#000000" rx="3.5" transform="matrix(.842506 0 0 .954024 661.2863 -434.5226)" ry="4" cy="714" cx="63.5" stroke-width="3.0247481" fill="url(#a)"/>
<ellipse style="color:#000000" rx="3.5" transform="matrix(.269046 0 0 .308688 696.6634 24.57494)" ry="4" cy="714" cx="63.5" stroke-width="3.0247481" fill="#fff"/>
</g>
</g>
</g>
</svg>
