<?xml version="1.0" encoding="UTF-8" standalone="no"?>
<svg xmlns:rdf="http://www.w3.org/1999/02/22-rdf-syntax-ns#" xmlns="http://www.w3.org/2000/svg" version="1.1" xmlns:cc="http://creativecommons.org/ns#" viewBox="0 0 24 24" xmlns:dc="http://purl.org/dc/elements/1.1/">
<metadata>
<rdf:RDF>
<cc:Work rdf:about="">
<dc:format>image/svg+xml</dc:format>
<dc:type rdf:resource="http://purl.org/dc/dcmitype/StillImage"/>
</cc:Work>
</rdf:RDF>
</metadata>
<g transform="matrix(0,1,1,0,0,0)">
<path d="m0.5 20.5c4.5-2.5 3.5-10.5 7.5-12.5s5 13 9 13 5-4 6.5-9.5" stroke="#969696" stroke-linecap="round" fill="none"/>
<g stroke="#c80000" fill="none">
<path d="m3.5 0v14"/>
<path d="m12.5 0v12"/>
<path d="m21.5 0v15"/>
</g>
<path d="m6 3-2-1.5 2-1.5v1h4v-1l2 1.5-2 1.5v-1h-4z"/>
<path d="m15 3-2-1.5 2-1.5v1h4v-1l2 1.5-2 1.5v-1h-4z"/>
<g stroke-linejoin="round" stroke="blue" fill="#8ab3de">
<rect y="14.5" width="4" x="1.5" height="4"/>
<rect y="11.5" width="4" x="10.5" height="4"/>
<rect y="15.5" width="4" x="19.5" height="4"/>
</g>
</g>
</svg>
