<?xml version="1.0" encoding="UTF-8" standalone="no"?>
<svg xmlns:rdf="http://www.w3.org/1999/02/22-rdf-syntax-ns#" xmlns="http://www.w3.org/2000/svg" version="1.1" xmlns:cc="http://creativecommons.org/ns#" xmlns:xlink="http://www.w3.org/1999/xlink" viewBox="0 0 11 11.016454" xmlns:dc="http://purl.org/dc/elements/1.1/">
<metadata>
<rdf:RDF>
<cc:Work rdf:about="">
<dc:format>image/svg+xml</dc:format>
<dc:type rdf:resource="http://purl.org/dc/dcmitype/StillImage"/>
</cc:Work>
</rdf:RDF>
</metadata>
<defs>
<linearGradient id="c" y2="311.079" xlink:href="#a" gradientUnits="userSpaceOnUse" x2="698.2679" gradientTransform="translate(-.999998 -.937496)" y1="303.7007" x1="693.279"/>
<linearGradient id="b" y2="311.8198" xlink:href="#a" gradientUnits="userSpaceOnUse" x2="696.8668" gradientTransform="translate(-.999998 -.937496)" y1="306.0704" x1="693.4026"/>
<linearGradient id="a">
<stop stop-color="#5a5a5a" offset="0"/>
<stop offset="1"/>
</linearGradient>
</defs>
<g transform="matrix(1,0,0,1.066667,-691.5,-324.0001)" fill="none">
<rect height="10.31249" width="11" y="303.75" x="691.5"/>
<path stroke-linejoin="round" d="m696.7189 305.998-0.7189-0.4042-4 8h10v-0.9375" stroke="url(#c)" stroke-linecap="round" stroke-width=".9682457"/>
<path d="m694.5 309.375c1.5 0.4688 3 2.3438 2.5 4.2188" stroke="url(#b)" stroke-linecap="round" stroke-width=".9682457"/>
</g>
</svg>
