<?xml version="1.0" encoding="UTF-8" standalone="no"?>
<svg xmlns:rdf="http://www.w3.org/1999/02/22-rdf-syntax-ns#" xmlns="http://www.w3.org/2000/svg" version="1.1" xmlns:cc="http://creativecommons.org/ns#" xmlns:xlink="http://www.w3.org/1999/xlink" viewBox="0 0 23.999999 23.999874" xmlns:dc="http://purl.org/dc/elements/1.1/">
<metadata>
<rdf:RDF>
<cc:Work rdf:about="">
<dc:format>image/svg+xml</dc:format>
<dc:type rdf:resource="http://purl.org/dc/dcmitype/StillImage"/>
</cc:Work>
</rdf:RDF>
</metadata>
<defs>
<linearGradient id="a" y2="132.8273" gradientUnits="userSpaceOnUse" x2="906.6448" y1="116.8648" x1="899.6934">
<stop stop-color="#fffdf8" offset="0"/>
<stop stop-color="#cdccc7" offset="1"/>
</linearGradient>
</defs>
<g transform="translate(-890.99,-114.109)">
<path stroke-linejoin="round" style="color:#000000" d="m891.49 114.609h22.9999l0.0001 14.4255h-4.1818l-4.6073 8.5745-0.62-8.5745h-13.5908l-0.0001-14.4255z" fill-rule="evenodd" stroke="#000" stroke-linecap="round" stroke-width=".9999992" fill="url(#a)"/>
<path d="m895.9941 119.2959c-0.8478-0.0208-1.2003 0.9006-1.273 1.6021-0.0917 1.0456-0.1682 2.1973 0.3589 3.1461 0.4164 0.7369 1.615 0.6248 1.9176-0.1531 0.4392-1.0112 0.3832-2.1704 0.2306-3.2391-0.1106-0.632-0.4784-1.3882-1.2341-1.356zm0-0.6833c0.9568-0.0602 1.7578 0.7018 1.9817 1.5921 0.3119 1.1588 0.3144 2.4242-0.0466 3.572-0.2564 0.8882-1.128 1.5558-2.0672 1.4476-1.0331 0.005-1.7699-0.9324-1.9306-1.8821-0.2234-1.2068-0.2383-2.5245 0.2906-3.6564 0.3215-0.6731 1.0253-1.1026 1.772-1.0732z"/>
<path d="m899.7179 124.0191h0.9011v1.0847h-0.9011v-1.0847z"/>
<path d="m903.2454 124.3778h3.0107v0.726h-4.0484v-0.726c0.9524-1.0356 2.0501-1.9468 2.8839-3.0849 0.4371-0.5732 0.3285-1.5395-0.3917-1.8292-0.8239-0.3243-1.7207 0.0454-2.4495 0.4428v-0.8711c1.0746-0.4561 2.4991-0.7119 3.4536 0.1358 0.7821 0.7128 0.6071 1.9967-0.072 2.7189-0.7583 0.862-1.5908 1.6599-2.3866 2.4877z"/>
<path d="m910.6847 121.666c0.8936 0.125 1.4826 1.0577 1.2925 1.9233-0.0941 1.0028-1.1137 1.5906-2.042 1.6202-0.7225 0.0699-1.4517-0.0589-2.1331-0.2978v-0.8328c0.8366 0.4561 1.9245 0.602 2.8007 0.1776 0.8017-0.4345 0.6906-1.8116-0.1968-2.081-0.4808-0.1838-1.0001-0.1094-1.5021-0.1251v-0.7089c0.6676-0.0288 1.5094 0.1489 1.9565-0.4754 0.4177-0.6609-0.1447-1.5343-0.9078-1.5109-0.6657-0.0681-1.3301 0.0928-1.9583 0.2995v-0.7687c1.08-0.2867 2.4076-0.5291 3.3533 0.2318 0.8021 0.6445 0.6265 2.1423-0.3992 2.464l-0.1279 0.0456-0.1358 0.0387"/>
</g>
</svg>
