<?xml version="1.0" encoding="UTF-8" standalone="no"?>
<svg xmlns:rdf="http://www.w3.org/1999/02/22-rdf-syntax-ns#" xmlns="http://www.w3.org/2000/svg" version="1.1" xmlns:cc="http://creativecommons.org/ns#" xmlns:xlink="http://www.w3.org/1999/xlink" viewBox="0 0 24 24" xmlns:dc="http://purl.org/dc/elements/1.1/">
<metadata>
<rdf:RDF>
<cc:Work rdf:about="">
<dc:format>image/svg+xml</dc:format>
<dc:type rdf:resource="http://purl.org/dc/dcmitype/StillImage"/>
</cc:Work>
</rdf:RDF>
</metadata>
<defs>
<linearGradient id="a" y2="4" gradientUnits="userSpaceOnUse" x2="4" y1="25" x1="30">
<stop stop-color="#fff" offset="0"/>
<stop stop-color="#e2e1e1" offset="1"/>
</linearGradient>
</defs>
<path fill-opacity=".0667" d="m1 1h22l1 1v20l-2 2h-20l-1-1z"/>
<path fill="none" stroke="#000" d="m0.5 1v20"/>
<path fill="none" stroke="#000" d="m21.5 1v20"/>
<path fill="none" stroke="#000" d="m1 0.5h20"/>
<path fill="none" stroke="#000" d="m1 21.5h20"/>
<rect height="20" width="20" y="1" x="1" fill="url(#a)"/>
<path fill="#fff" d="m2 21h-1v-20h20v1h-19z"/>
<path d="m19.5 9.75v-4c0-3-5-3-5 0v4" stroke="#383838" stroke-linecap="round" fill="none"/>
<path fill="none" stroke="#383838" d="m19.7 7h-5.2"/>
<path fill="#5a5a5a" d="m17.5 20-2.5-3h2v-7h1v7h2z"/>
<path fill="#5a5a5a" d="m11.5 20-2.5-3h2v-15h1v15h2z"/>
<path fill="#5a5a5a" d="m5.5 20-2.5-3h2v-15h1v15h2z"/>
</svg>
