<?xml version="1.0" encoding="UTF-8" standalone="no"?>
<svg xmlns:rdf="http://www.w3.org/1999/02/22-rdf-syntax-ns#" xmlns="http://www.w3.org/2000/svg" version="1.1" xmlns:cc="http://creativecommons.org/ns#" viewBox="0 0 16 16" xmlns:dc="http://purl.org/dc/elements/1.1/">
<metadata>
<rdf:RDF>
<cc:Work rdf:about="">
<dc:format>image/svg+xml</dc:format>
<dc:type rdf:resource="http://purl.org/dc/dcmitype/StillImage"/>
</cc:Work>
</rdf:RDF>
</metadata>
<path d="m0.5 2.5h14" stroke="#646464" stroke-linecap="round" fill="none"/>
<path d="m0.5 13.5h2" stroke="#646464" stroke-linecap="round" fill="none"/>
<path d="m12.5 13.5h2" stroke="#646464" stroke-linecap="round" fill="none"/>
<rect stroke-linejoin="round" fill-opacity=".4" height="4" width="4" stroke="#6464ff" y=".5" x="5.5" fill="#6464ff"/>
<rect stroke-linejoin="round" fill-opacity=".4" height="4" width="3" stroke="#00f" y="11.5" x="1.5" fill="#6464ff"/>
<rect stroke-linejoin="round" fill-opacity=".4" height="4" width="3" stroke="#00f" y="11.5" x="10.5" fill="#6464ff"/>
<path d="m7 6h1v2h2l-2.5 3-2.5-3h2z"/>
</svg>
