<?xml version="1.0" encoding="UTF-8" standalone="no"?>
<svg xmlns:rdf="http://www.w3.org/1999/02/22-rdf-syntax-ns#" xmlns="http://www.w3.org/2000/svg" version="1.1" xmlns:cc="http://creativecommons.org/ns#" xmlns:xlink="http://www.w3.org/1999/xlink" viewBox="0 0 13.8222 14.345885" xmlns:dc="http://purl.org/dc/elements/1.1/">
<metadata>
<rdf:RDF>
<cc:Work rdf:about="">
<dc:format>image/svg+xml</dc:format>
<dc:type rdf:resource="http://purl.org/dc/dcmitype/StillImage"/>
</cc:Work>
</rdf:RDF>
</metadata>
<defs>
<linearGradient id="b">
<stop stop-color="#5a5a5a" offset="0"/>
<stop offset="1"/>
</linearGradient>
<linearGradient id="i" y2="210.5" xlink:href="#b" gradientUnits="userSpaceOnUse" x2="111.6865" y1="210.5" x1="99.31348"/>
<linearGradient id="f" y2="218.3974" xlink:href="#b" gradientUnits="userSpaceOnUse" x2="22.04275" gradientTransform="matrix(1.124777,0,0,1.399469,339.507,-41.54364)" y1="214.0084" x1="15.15684"/>
<linearGradient id="g" y2="212.9901" xlink:href="#a" gradientUnits="userSpaceOnUse" x2="108.8156" y1="205.192" x1="101.7507"/>
<linearGradient id="h" y2="206.9966" xlink:href="#a" gradientUnits="userSpaceOnUse" x2="101.1929" y1="215.4819" x1="108.3513"/>
<linearGradient id="e" y2="218.8156" xlink:href="#c" gradientUnits="userSpaceOnUse" x2="20.98923" gradientTransform="matrix(1.165669,0,0,1.655559,338.7499,-97.1359)" y1="215.0097" x1="17.48326"/>
<linearGradient id="c">
<stop stop-color="#499204" offset="0"/>
<stop stop-color="#a7e26e" offset="1"/>
</linearGradient>
<linearGradient id="a">
<stop stop-color="#fff" offset="0"/>
<stop stop-color="#98b6d3" offset="1"/>
</linearGradient>
<linearGradient id="d" y2="214.3821" xlink:href="#c" gradientUnits="userSpaceOnUse" x2="16.10928" gradientTransform="matrix(.87731 0 0 .991952 344.0693 46.88201)" y1="219.6944" x1="19.08596"/>
</defs>
<g transform="translate(-355.5,-252.15412)">
<g stroke-linejoin="round" stroke-miterlimit="0">
<rect style="color:#000000" height="7" width="9" stroke="url(#f)" y="259" x="356" fill="none"/>
<rect style="color:#000000" fill-rule="evenodd" height="5" width="7" stroke="url(#d)" stroke-linecap="round" y="260" x="357" fill="url(#e)"/>
</g>
<rect style="color:#000000" fill-rule="evenodd" transform="translate(4.959 -.03898)" height="1.999995" width="2.00001" y="252.1931" x="353.3632" stroke-width="1.0000006"/>
<rect style="color:#000000" fill-rule="evenodd" transform="translate(13.959 -.0389847)" height="1.999995" width="2.00001" y="252.1931" x="353.3632" stroke-width="1.0000006"/>
<rect style="color:#000000" fill-rule="evenodd" height="2" width="2" y="261" x="367"/>
<rect style="color:#000000" fill-rule="evenodd" transform="translate(4.9590001 8.96102)" height="1.999995" width="2.00001" y="252.1931" x="353.3632" stroke-width="1.0000006"/>
<g stroke-linejoin="round" stroke-linecap="round" stroke-miterlimit="0" transform="translate(-.0348992 -.0284392)">
<circle style="color:#000000" stroke-width="1.3730356" transform="matrix(.727881 0 0 .728748 287.069 104.2892)" stroke="url(#i)" cy="210.5" cx="105.5" r="5.5" fill="none"/>
<circle style="color:#000000" stroke-width="1.8262242" fill-rule="evenodd" transform="matrix(.547085 0 0 .548073 306.1137 142.2991)" stroke="url(#g)" cy="210.5" cx="105.5" r="5.5" fill="url(#h)"/>
</g>
</g>
</svg>
