<?xml version="1.0" encoding="UTF-8" standalone="no"?>
<svg xmlns:rdf="http://www.w3.org/1999/02/22-rdf-syntax-ns#" xmlns="http://www.w3.org/2000/svg" version="1.1" xmlns:cc="http://creativecommons.org/ns#" xmlns:xlink="http://www.w3.org/1999/xlink" viewBox="0 0 12 11.64279" xmlns:dc="http://purl.org/dc/elements/1.1/">
<metadata>
<rdf:RDF>
<cc:Work rdf:about="">
<dc:format>image/svg+xml</dc:format>
<dc:type rdf:resource="http://purl.org/dc/dcmitype/StillImage"/>
</cc:Work>
</rdf:RDF>
</metadata>
<defs>
<linearGradient id="a" y2="729.9991" gradientUnits="userSpaceOnUse" x2="60.49544" gradientTransform="matrix(1.007189 0 0 .98662 -.460106 9.713565)" y1="715.913" x1="54.46346">
<stop stop-color="#db5d00" offset="0"/>
<stop stop-color="#ffd749" offset=".35076979"/>
<stop stop-color="#fff593" offset=".59668732"/>
<stop stop-color="#fff7c2" offset=".78382427"/>
<stop stop-color="#fff" offset="1"/>
</linearGradient>
</defs>
<g transform="matrix(.75 0 0 .71955 -37.5 -510.75053)">
<rect style="color:#000000" fill-opacity="0" rx="5.33334" ry="0" height="15.99362" width="16" y="710.0064" x="50" stroke-width="1px"/>
<path d="m62.5 717.5v-2.6359c0-3-2.50003-4.3641-4.50003-4.3641s-4.49997 1.3641-4.49997 4.3641v2.6359h9z" stroke="#000" stroke-width="1.3612533px" fill="none"/>
<g transform="matrix(.997501 7.43861e-7 -7.10133e-7 .9975 .167523 1.817969)">
<path stroke-linejoin="round" d="m51.96282 724.3143-0.00001-8.368h12.03007v8.368h-12.03006z" fill-rule="evenodd" stroke="#000" stroke-linecap="round" stroke-width="1.0917313" fill="url(#a)"/>
</g>
<path d="m57.96875 718.4687c-0.82847 0.0172-1.48611 0.7028-1.46875 1.5313l1 1c-0.0076 0.5409-0.72344 1.5441-0.25619 1.8168s1.04513 0.2727 1.51238 0-0.24854-1.2759-0.25619-1.8168l1-1c0.0086-0.4087-0.15001-0.8031-0.43905-1.0922-0.28905-0.289-0.68352-0.4476-1.0922-0.4391z" fill-rule="evenodd" transform="matrix(1.034059 .0786266 -.0088376 .931256 4.459467 44.22347)"/>
</g>
</svg>
