<?xml version="1.0" encoding="UTF-8" standalone="no"?>
<svg xmlns:rdf="http://www.w3.org/1999/02/22-rdf-syntax-ns#" xmlns="http://www.w3.org/2000/svg" version="1.1" xmlns:cc="http://creativecommons.org/ns#" viewBox="0 0 20 20" xmlns:dc="http://purl.org/dc/elements/1.1/">
<metadata>
<rdf:RDF>
<cc:Work rdf:about="">
<dc:format>image/svg+xml</dc:format>
<dc:type rdf:resource="http://purl.org/dc/dcmitype/StillImage"/>
</cc:Work>
</rdf:RDF>
</metadata>
<g transform="translate(-669.9994,-65)">
<rect style="color:#000000" fill-rule="evenodd" height="18" width="18" y="66" x="671" stroke-width="1.0000004" fill="#99b6d4"/>
<path stroke-width="0" fill="#fff" d="m676.7274 66.00001-3.2727 3.42857 4.0909 4.28572 4.0909-4.28572-3.2727-3.42857h-1.6364zm4.9091 3.42857 4.0909 4.28572 3.2727-3.42858v-1.71428l-2.4545-2.57143h-1.6364l-3.2727 3.42857zm4.0909 4.28572-4.0909 4.28571 4.0909 4.28572 3.2727-3.42858v-1.71428l-3.2727-3.42857zm0 8.57143-1.6364 1.71428h3.2728l-1.6364-1.71428zm-4.0909-4.28572-4.0909-4.28571-4.0909 4.28571 4.0909 4.28572 4.0909-4.28572zm-4.0909 4.28572-1.6364 1.71428h3.2727l-1.6363-1.71428zm-4.0909-4.28572-2.4546-2.57143v5.14286l2.4546-2.57143zm0-8.57143-2.4546-2.57143v5.14286l2.4546-2.57143z"/>
<rect stroke-linejoin="round" style="color:#000000" height="19" width="19" stroke="#000" stroke-linecap="round" y="65.5" x="670.4994" stroke-width="1px" fill="none"/>
</g>
</svg>
