<?xml version="1.0" encoding="UTF-8" standalone="no"?>
<svg xmlns:rdf="http://www.w3.org/1999/02/22-rdf-syntax-ns#" xmlns="http://www.w3.org/2000/svg" version="1.1" xmlns:cc="http://creativecommons.org/ns#" viewBox="0 0 24 24" xmlns:dc="http://purl.org/dc/elements/1.1/">
<metadata>
<rdf:RDF>
<cc:Work rdf:about="">
<dc:format>image/svg+xml</dc:format>
<dc:type rdf:resource="http://purl.org/dc/dcmitype/StillImage"/>
</cc:Work>
</rdf:RDF>
</metadata>
<rect height="14" width="14" y="10" x="10" fill="#4776a7"/>
<path fill="#99b6d4" d="m5.5 24v-18.5h18.5v9h-9.5v9.5z"/>
<path fill="none" stroke="#000" d="m5.5 24v-18.5h18.5m0 9h-9.5v9.5"/>
<rect height="2" width="2" y="21" x="9" fill="#fff"/>
<rect height="2" width="2" y="9" x="21" fill="#fff"/>
<circle stroke="#000" cy="10" cx="10" r="9.5" fill="#cddbeb"/>
</svg>
