<?xml version="1.0" encoding="UTF-8" standalone="no"?>
<svg xmlns:rdf="http://www.w3.org/1999/02/22-rdf-syntax-ns#" xmlns="http://www.w3.org/2000/svg" version="1.1" xmlns:cc="http://creativecommons.org/ns#" xmlns:xlink="http://www.w3.org/1999/xlink" viewBox="0 0 16 16" xmlns:dc="http://purl.org/dc/elements/1.1/">
<metadata>
<rdf:RDF>
<cc:Work rdf:about="">
<dc:format>image/svg+xml</dc:format>
<dc:type rdf:resource="http://purl.org/dc/dcmitype/StillImage"/>
</cc:Work>
</rdf:RDF>
</metadata>
<defs>
<linearGradient id="a" y2="209.1681" gradientUnits="userSpaceOnUse" x2="1096.518" gradientTransform="matrix(.6644326 0 0 .6364719 -764.818 59.2438)" y1="181.3308" x1="1096.518">
<stop offset="0"/>
<stop stop-color="#7f7f7f" offset=".35076979"/>
<stop stop-color="#bfbfbf" offset=".59668732"/>
<stop stop-color="#dfdfdf" offset=".78382427"/>
<stop stop-color="#fff" offset="1"/>
</linearGradient>
</defs>
<g transform="translate(45,-175)">
<rect style="color:#000000" height="16" width="16" y="175" x="-45" fill="none"/>
<path style="color:#000000" stroke-width=".6138721" fill="url(#a)" d="m-44.25871 180.0349 2.08042 1.5324 0.943-1.889 0.9323 1.5968 2.85787-3.1374 1.54512 2.182 1.09925-1.1423 2.66542 2.4237 2.2907-1.668v3.1205 1.0187 1.0187 1.0187l-2.22589 0.9033-2.01263-0.6499 2.07948 2.3704-5.1049-2.153-3.14729 0.9362 0.98204-3.1154-2.84027 2.8292-2.14462-1.1208v-1.0187-1.0187-1.0187-3.0187z"/>
<path style="color:#000000" d="m-29.84463 186.1097-2.22589 0.9033-2.01263-0.6499 2.07948 2.3704-5.1049-2.153-3.14729 0.9362 0.98204-3.1154-2.84027 2.8292-2.14462-1.1208m0-6.0748 2.08042 1.5324 0.943-1.889 0.9323 1.5968 2.85787-3.1374 1.54512 2.182 1.09925-1.1423 2.66542 2.4237 2.2907-1.668" stroke="#000" stroke-width=".6138721" fill="none"/>
</g>
</svg>
