<?xml version="1.0" encoding="UTF-8" standalone="no"?>
<svg xmlns:rdf="http://www.w3.org/1999/02/22-rdf-syntax-ns#" xmlns="http://www.w3.org/2000/svg" version="1.1" xmlns:cc="http://creativecommons.org/ns#" xmlns:xlink="http://www.w3.org/1999/xlink" viewBox="0 0 16 16" xmlns:dc="http://purl.org/dc/elements/1.1/">
<metadata>
<rdf:RDF>
<cc:Work rdf:about="">
<dc:format>image/svg+xml</dc:format>
<dc:type rdf:resource="http://purl.org/dc/dcmitype/StillImage"/>
</cc:Work>
</rdf:RDF>
</metadata>
<defs>
<linearGradient id="a" y2="213.1752" gradientUnits="userSpaceOnUse" x2="1095.32" gradientTransform="matrix(.6644326 0 0 .6364719 -764.818 59.2438)" y1="180.1614" x1="1095.32">
<stop offset="0"/>
<stop stop-color="#7f7f7f" offset=".35076979"/>
<stop stop-color="#bfbfbf" offset=".59668732"/>
<stop stop-color="#dfdfdf" offset=".78382427"/>
<stop stop-color="#fff" offset="1"/>
</linearGradient>
</defs>
<g transform="translate(45,-175)">
<rect style="color:#000000" height="16" width="16" y="175" x="-45" fill="none"/>
<path style="color:#000000" stroke-width=".6138721" fill="url(#a)" d="m-44.25871 182.0349c3.11679 0.0401 3.76607-3.1116 7.25315-3.0784 3.48708 0.0331 3.22096 3.1792 7.16093 3.0784v4.0748c-3.54547 0-4.29717 2.8563-7.16674 2.8526-3.18827-0.004-3.78523-2.8526-7.24734-2.8526v-4.0748z"/>
<path style="color:#000000" d="m-29.84463 186.1097c-3.54547 0-4.29717 2.8563-7.16674 2.8526-3.18827-0.004-3.78523-2.8526-7.24734-2.8526m0-4.0748c3.11679 0.0401 3.76607-3.1116 7.25315-3.0784 3.48708 0.0331 3.22096 3.1792 7.16093 3.0784" stroke="#000" stroke-width=".6138721" fill="none"/>
</g>
</svg>
