<?xml version="1.0" encoding="UTF-8" standalone="no"?>
<svg xmlns:rdf="http://www.w3.org/1999/02/22-rdf-syntax-ns#" xmlns="http://www.w3.org/2000/svg" version="1.1" xmlns:cc="http://creativecommons.org/ns#" viewBox="0 0 16.041 16.039128" xmlns:dc="http://purl.org/dc/elements/1.1/">
<metadata>
<rdf:RDF>
<cc:Work rdf:about="">
<dc:format>image/svg+xml</dc:format>
<dc:type rdf:resource="http://purl.org/dc/dcmitype/StillImage"/>
</cc:Work>
</rdf:RDF>
</metadata>
<g stroke-width=".7" transform="translate(-404.959 -219.96087)">
<rect style="color:#000000" height="16" width="16" y="220" x="405" fill="none"/>
<rect style="color:#000000" fill-rule="evenodd" height="1" width="1" y="220" x="405"/>
<rect style="color:#000000" fill-rule="evenodd" transform="translate(2.959 -.039128)" height="1" width="1" y="220" x="405"/>
<rect style="color:#000000" fill-rule="evenodd" transform="translate(5.959 -.039128)" height="1" width="1" y="220" x="405"/>
<rect style="color:#000000" fill-rule="evenodd" transform="translate(8.959 -.039128)" height="1" width="1" y="220" x="405"/>
<rect style="color:#000000" fill-rule="evenodd" transform="translate(11.959 -.039128)" height="1" width="1" y="220" x="405"/>
<rect style="color:#000000" fill-rule="evenodd" transform="translate(14.959 -.039128)" height="1" width="1" y="220" x="405"/>
<rect style="color:#000000" fill-rule="evenodd" transform="translate(-.041 2.960872)" height="1" width="1" y="220" x="405"/>
<rect style="color:#000000" fill-rule="evenodd" transform="translate(2.959 2.960872)" height="1" width="1" y="220" x="405"/>
<rect style="color:#000000" fill-rule="evenodd" transform="translate(5.959 2.960872)" height="1" width="1" y="220" x="405"/>
<rect style="color:#000000" fill-rule="evenodd" transform="translate(8.959 2.960872)" height="1" width="1" y="220" x="405"/>
<rect style="color:#000000" fill-rule="evenodd" transform="translate(11.959 2.960872)" height="1" width="1" y="220" x="405"/>
<rect style="color:#000000" fill-rule="evenodd" transform="translate(14.959 2.960872)" height="1" width="1" y="220" x="405"/>
<rect style="color:#000000" fill-rule="evenodd" transform="translate(-.041 5.960872)" height="1" width="1" y="220" x="405"/>
<rect style="color:#000000" fill-rule="evenodd" transform="translate(2.959 5.960872)" height="1" width="1" y="220" x="405"/>
<rect style="color:#000000" fill-rule="evenodd" transform="translate(5.959 5.960872)" height="1" width="1" y="220" x="405"/>
<rect style="color:#000000" fill-rule="evenodd" transform="translate(8.959 5.960872)" height="1" width="1" y="220" x="405"/>
<rect style="color:#000000" fill-rule="evenodd" transform="translate(11.959 5.960872)" height="1" width="1" y="220" x="405"/>
<rect style="color:#000000" fill-rule="evenodd" transform="translate(14.959 5.960872)" height="1" width="1" y="220" x="405"/>
<rect style="color:#000000" fill-rule="evenodd" transform="translate(-.041 8.960872)" height="1" width="1" y="220" x="405"/>
<rect style="color:#000000" fill-rule="evenodd" transform="translate(2.959 8.960872)" height="1" width="1" y="220" x="405"/>
<rect style="color:#000000" fill-rule="evenodd" transform="translate(5.959 8.960872)" height="1" width="1" y="220" x="405"/>
<rect style="color:#000000" fill-rule="evenodd" transform="translate(8.959 8.960872)" height="1" width="1" y="220" x="405"/>
<rect style="color:#000000" fill-rule="evenodd" transform="translate(11.959 8.960872)" height="1" width="1" y="220" x="405"/>
<rect style="color:#000000" fill-rule="evenodd" transform="translate(14.959 8.960872)" height="1" width="1" y="220" x="405"/>
<rect style="color:#000000" fill-rule="evenodd" transform="translate(-.041 11.96087)" height="1" width="1" y="220" x="405"/>
<rect style="color:#000000" fill-rule="evenodd" transform="translate(2.959 11.96087)" height="1" width="1" y="220" x="405"/>
<rect style="color:#000000" fill-rule="evenodd" transform="translate(5.959 11.96087)" height="1" width="1" y="220" x="405"/>
<rect style="color:#000000" fill-rule="evenodd" transform="translate(8.959 11.96087)" height="1" width="1" y="220" x="405"/>
<rect style="color:#000000" fill-rule="evenodd" transform="translate(11.959 11.96087)" height="1" width="1" y="220" x="405"/>
<rect style="color:#000000" fill-rule="evenodd" transform="translate(14.959 11.96087)" height="1" width="1" y="220" x="405"/>
<rect style="color:#000000" fill-rule="evenodd" transform="translate(-.041 14.96087)" height="1" width="1" y="220" x="405"/>
<rect style="color:#000000" fill-rule="evenodd" transform="translate(2.959 14.96087)" height="1" width="1" y="220" x="405"/>
<rect style="color:#000000" fill-rule="evenodd" transform="translate(5.959 14.96087)" height="1" width="1" y="220" x="405"/>
<rect style="color:#000000" fill-rule="evenodd" transform="translate(8.959 14.96087)" height="1" width="1" y="220" x="405"/>
<rect style="color:#000000" fill-rule="evenodd" transform="translate(11.959 14.96087)" height="1" width="1" y="220" x="405"/>
<rect style="color:#000000" fill-rule="evenodd" transform="translate(14.959 14.96087)" height="1" width="1" y="220" x="405"/>
</g>
</svg>
