<?xml version="1.0" encoding="UTF-8" standalone="no"?>
<svg xmlns:rdf="http://www.w3.org/1999/02/22-rdf-syntax-ns#" xmlns="http://www.w3.org/2000/svg" version="1.1" xmlns:cc="http://creativecommons.org/ns#" viewBox="0 0 16.5 16.50057" xmlns:dc="http://purl.org/dc/elements/1.1/">
<metadata>
<rdf:RDF>
<cc:Work rdf:about="">
<dc:format>image/svg+xml</dc:format>
<dc:type rdf:resource="http://purl.org/dc/dcmitype/StillImage"/>
</cc:Work>
</rdf:RDF>
</metadata>
<g transform="translate(-673.5,-29.5)">
<rect style="color:#000000" height="16" width="16" y="30.00057" x="674" stroke-width=".1" fill="none"/>
<path style="color:#000000" d="m687 30v13h-13" stroke="#646464" stroke-linecap="square" fill="none"/>
<circle style="color:#000000" stroke-width="1.1428572" fill-rule="evenodd" fill-opacity=".3921569" stroke-linecap="round" transform="matrix(.8749999 0 0 .875 19.93758 6.375)" stroke="#008000" cy="33" cx="753.5" r="2" fill="#6464ff"/>
</g>
</svg>
