<?xml version="1.0" encoding="UTF-8" standalone="no"?>
<svg xmlns:rdf="http://www.w3.org/1999/02/22-rdf-syntax-ns#" xmlns="http://www.w3.org/2000/svg" version="1.1" xmlns:cc="http://creativecommons.org/ns#" xmlns:xlink="http://www.w3.org/1999/xlink" viewBox="0 0 16.058319 16.025033" xmlns:dc="http://purl.org/dc/elements/1.1/">
<metadata>
<rdf:RDF>
<cc:Work rdf:about="">
<dc:format>image/svg+xml</dc:format>
<dc:type rdf:resource="http://purl.org/dc/dcmitype/StillImage"/>
</cc:Work>
</rdf:RDF>
</metadata>
<defs>
<linearGradient id="b" y2="257.662" gradientUnits="userSpaceOnUse" x2="14.32074" gradientTransform="translate(0 .0207681)" y1="251" x1="8">
<stop stop-color="#5a5a5a" offset="0"/>
<stop offset="1"/>
</linearGradient>
<radialGradient id="a" cx="171.7755" gradientUnits="userSpaceOnUse" cy="153.063" r="7.469679" gradientTransform="matrix(1.122233,1.252981,-2.05495,1.830229,297.3402,-339.2527)">
<stop stop-color="#fff" offset="0"/>
<stop stop-color="#98b6d3" offset="1"/>
</radialGradient>
</defs>
<g transform="matrix(1 0 0 .997925 -4.97293 -247.4583)">
<circle stroke-linejoin="round" style="color:#000000" stroke-width=".9403349" stroke-opacity=".2651297" stroke-linecap="round" transform="matrix(1.00786,0,0,1.007983,-167.1731,96.0569)" stroke="#000" cy="159" cx="179" stroke-miterlimit="0" r="7" fill="none"/>
<rect style="color:#000000" height="16" width="16" y="248.029" x="5.0273" fill="none"/>
<path fill-rule="evenodd" d="m18.03125 259-2.03125 2.0312 3 3 2.03125-2.0312-3-3z"/>
<circle stroke-linejoin="round" style="color:#000000" stroke-width=".9931717" fill-rule="evenodd" stroke-linecap="round" transform="matrix(1.00786,0,0,1.007983,-167.8785,95.25998)" stroke="#000" cy="159" cx="179" stroke-miterlimit="0" r="7" fill="url(#a)"/>
<path fill-rule="evenodd" fill="url(#b)" d="m11 251.0208h2l0.0273 3 3 0.029-0.0273 1.9938-3-0.0291 0.0273 3.0063h-2l-0.0273-3.0063h-3.0273l0.0273-1.9937h3.0273l-0.0273-3z"/>
</g>
</svg>
